STA 210 - Spring 2022 - MultiLR: Prediction + inferential models
…
For the baseline category, \(k=1\), we calculate the probability \(\hat{\pi}_{i1}\) as

\[
\hat{\pi}_{i1} = 1- \sum\limits_{k=2}^K \hat{\pi}_{ik}
\]

Predicted health rating

We can use our model to predict a person’s perceived health rating given their age and whether they exercise.

health_aug <- augment(health_fit, new_data = nhanes_adult)
health_aug

# A tibble: 6,465 × 11
   HealthGen   Age PhysActive Education      obs_num .pred_class .pred_Excellent
   <fct>     <int> <fct>      <fct>            <int> <fct>                 <dbl>
 1 Good         34 No         High School          1 Good                 0.0687
 2 Good         34 No         High School          2 Good                 0.0687
 3 Good         34 No         High School          3 Good                 0.0687
 4 Good         49 No         Some College         4 Good                 0.0691
 5 Vgood        45 Yes        College Grad         5 Vgood                0.155 
 6 Vgood        45 Yes        College Grad         6 Vgood                0.155 
 7 Vgood        45 Yes        College Grad         7 Vgood                0.155 
 8 Vgood        66 Yes        Some College         8 Vgood                0.157 
 9 Vgood        58 Yes        College Grad         9 Vgood                0.156 
10 Fair         54 Yes        9 - 11th Grade      10 Vgood                0.156 
# … with 6,455 more rows, and 4 more variables: .pred_Vgood <dbl>,
#   .pred_Good <dbl>, .pred_Fair <dbl>, .pred_Poor <dbl>

Actual vs. predicted health rating

For each observation, the predicted perceived health rating is the category with the highest predicted probability.

health_aug %>% select(contains("pred"))

# A tibble: 6,465 × 6
   .pred_class .pred_Excellent .pred_Vgood .pred_Good .pred_Fair .pred_Poor
   <fct>                 <dbl>       <dbl>      <dbl>      <dbl>      <dbl>
 1 Good                 0.0687       0.243      0.453     0.201     0.0348 
 2 Good                 0.0687       0.243      0.453     0.201     0.0348 
 3 Good                 0.0687       0.243      0.453     0.201     0.0348 
 4 Good                 0.0691       0.244      0.435     0.205     0.0467 
 5 Vgood                0.155        0.393      0.359     0.0868    0.00671
 6 Vgood                0.155        0.393      0.359     0.0868    0.00671
 7 Vgood                0.155        0.393      0.359     0.0868    0.00671
 8 Vgood                0.157        0.400      0.342     0.0904    0.0102 
 9 Vgood                0.156        0.397      0.349     0.0890    0.00872
10 Vgood                0.156        0.396      0.352     0.0883    0.00804
# … with 6,455 more rows
…
